{
  "$schema": "https://raw.githubusercontent.com/JanDeDobbeleer/oh-my-posh/main/themes/schema.json",
  "blocks": [
    {
      "alignment": "left",
      "newline": true,
      "segments": [
        {
          "type": "root",
          "style": "powerline",
          "powerline_symbol": "",
          "foreground": "#111111",
          "background": "#bf616a",
          "template": ""
        },        
        {
          "foreground": "#5e81ac",
          "style": "plain",
          "template": " \u2BA3 [",
          "type": "text"
        },
        {
          "type": "shell",
          "style": "plain",
          "foreground": "#5e81ac",          
           "properties": {
            "mapped_shell_names": {
              "pwsh": "PS 7",
              "powershell": "PS 7"
            }
          }
        },        
        {
          "type": "os",
          "style": "plain",
          "foreground": "#5e81ac",
          "template": "{{ if .WSL }}WSL at {{ end }}{{.Icon}} {{.UserName}}@{{.HostName}} ]"
        },
        {
          "type": "time",
          "style": "plain",
          "foreground": "#a3be8c",
          "properties": {
            "time_format": "15:04:05"
          }
        },       
        {
          "type": "executiontime",
          "style": "plain",
          "foreground": "#d08770",
          "template": "<#d08770>\u2b62</> {{ .FormattedMs }} ",
          "properties": {
            "threshold": 500,
            "style": "austin",
            "always_enabled": true
          }
        }                
      ],
      "type": "prompt"
    },
    {
      "alignment": "left",
      "newline": true,
      "segments": [
        {
          "foreground": "#88c0d0",
          "properties": {
            "style": "full"
          },
          "style": "plain",
          "template": "<#5e81ac> \u2BA1 [</> {{ .Path }}<#5e81ac> ]</>",
          "type": "path"
        },
        {
          "foreground": "#b48ead",
          "properties": {
            "fetch_stash_count": true,
            "fetch_status": true,
            "fetch_upstream_icon": true
          },
          "style": "plain",
          "template": "<#5e81ac></> {{ .HEAD }}{{if .BranchStatus }} {{ .BranchStatus }}{{ end }}{{ if .Working.Changed }}<#8fbcbb> \u2b7b</>{{ end }}{{ if .Staging.Changed }}<#88c0d0> \u2b7f </>{{ end }}<#5e81ac></>",
          "type": "git"
        },
        {
          "foreground": "#b48ead",
          "style": "plain",
          "template": "<#5e81ac>--[</>{{.Profile}}{{if .Region}}@{{.Region}}{{end}}<#5e81ac>]</>",
          "type": "aws"
        },
        {
          "foreground": "#b48ead",
          "style": "plain",
          "template": "<#5e81ac>--[</>{{.Context}}{{if .Namespace}} :: {{.Namespace}}{{end}}<#5e81ac>]</>",
          "type": "kubectl"
        },
        {
          "foreground": "#d8dee9",
          "style": "plain",
          "template": "<#5e81ac>[x</>{{ reason .Code }}<#5e81ac>]</>",
          "type": "status"
        }
      ],
      "type": "prompt"
    },
    {
      "alignment": "left",
      "newline": true,
      "segments": [
        {
          "foreground": "#5e81ac",
          "style": "plain",
          "template": " \u2B62",
          "type": "text"
        }
      ],
      "type": "prompt"
    }
  ],
  "final_space": true,
  "version": 3
}
